\relax 
\providecommand\hyper@newdestlabel[2]{}
\providecommand*\new@tpo@label[2]{}
\providecommand\HyperFirstAtBeginDocument{\AtBeginDocument}
\HyperFirstAtBeginDocument{\ifx\hyper@anchor\@undefined
\global\let\oldcontentsline\contentsline
\gdef\contentsline#1#2#3#4{\oldcontentsline{#1}{#2}{#3}}
\global\let\oldnewlabel\newlabel
\gdef\newlabel#1#2{\newlabelxx{#1}#2}
\gdef\newlabelxx#1#2#3#4#5#6{\oldnewlabel{#1}{{#2}{#3}}}
\AtEndDocument{\ifx\hyper@anchor\@undefined
\let\contentsline\oldcontentsline
\let\newlabel\oldnewlabel
\fi}
\fi}
\global\let\hyper@last\relax 
\gdef\HyperFirstAtBeginDocument#1{#1}
\providecommand\HyField@AuxAddToFields[1]{}
\providecommand\HyField@AuxAddToCoFields[2]{}
\pgfsyspdfmark {pgfid1}{4736286}{50644704}
\babel@aux{italian}{}
\babel@aux{italian}{}
\pgfsyspdfmark {pgfid2}{4736286}{50644704}
\@writefile{toc}{\contentsline {chapter}{Generale}{2}{chapter*.2}}
\@writefile{lof}{\addvspace {10\p@ }}
\@writefile{lot}{\addvspace {10\p@ }}
\@writefile{toc}{\contentsline {section}{Diario di bordo}{2}{section*.3}}
\@writefile{toc}{\contentsline {subsection}{4 ottobre 2018}{2}{subsection*.4}}
\@writefile{toc}{\contentsline {subsection}{22 ottobre 2018}{2}{subsection*.5}}
\pgfsyspdfmark {pgfid3}{4736286}{50644704}
\@writefile{toc}{\contentsline {section}{Incarichi}{3}{section*.6}}
\pgfsyspdfmark {pgfid4}{4736286}{50644704}
\pgfsyspdfmark {pgfid5}{4736286}{50644704}
\@writefile{toc}{\contentsline {section}{Elenco scene}{5}{section*.7}}
\pgfsyspdfmark {pgfid6}{4736286}{50644704}
\@writefile{toc}{\contentsline {chapter}{Organizzazione}{6}{chapter*.8}}
\@writefile{lof}{\addvspace {10\p@ }}
\@writefile{lot}{\addvspace {10\p@ }}
\@writefile{toc}{\contentsline {section}{Personaggi}{6}{section*.9}}
\newlabel{characterpadre}{{}{6}{Personaggi}{section*.9}{}}
\newlabel{characterbanach}{{}{6}{Personaggi}{section*.9}{}}
\newlabel{characterbiblio}{{}{6}{Personaggi}{section*.9}{}}
\newlabel{characterbimboB}{{}{6}{Personaggi}{section*.9}{}}
\newlabel{characterbimboD}{{}{6}{Personaggi}{section*.9}{}}
\newlabel{characterbimboE}{{}{6}{Personaggi}{section*.9}{}}
\newlabel{characterbimboF}{{}{6}{Personaggi}{section*.9}{}}
\newlabel{characterbimboL}{{}{6}{Personaggi}{section*.9}{}}
\newlabel{characterorsina}{{}{6}{Personaggi}{section*.9}{}}
\newlabel{characterfanelli}{{}{6}{Personaggi}{section*.9}{}}
\newlabel{charactercoccodrillo}{{}{6}{Personaggi}{section*.9}{}}
\newlabel{characterdepasqua}{{}{6}{Personaggi}{section*.9}{}}
\newlabel{charactereulero}{{}{6}{Personaggi}{section*.9}{}}
\newlabel{charactergiglio}{{}{6}{Personaggi}{section*.9}{}}
\newlabel{characteruncino}{{}{6}{Personaggi}{section*.9}{}}
\newlabel{characterindCapO}{{}{6}{Personaggi}{section*.9}{}}
\newlabel{characterindCapF}{{}{6}{Personaggi}{section*.9}{}}
\newlabel{characterindCapN}{{}{6}{Personaggi}{section*.9}{}}
\newlabel{characterind1}{{}{6}{Personaggi}{section*.9}{}}
\newlabel{characterind2}{{}{6}{Personaggi}{section*.9}{}}
\newlabel{characterind3}{{}{6}{Personaggi}{section*.9}{}}
\newlabel{characterind4}{{}{6}{Personaggi}{section*.9}{}}
\newlabel{characterind5}{{}{6}{Personaggi}{section*.9}{}}
\newlabel{characterind6}{{}{6}{Personaggi}{section*.9}{}}
\newlabel{characterind7}{{}{6}{Personaggi}{section*.9}{}}
\newlabel{charactermadre}{{}{6}{Personaggi}{section*.9}{}}
\newlabel{characternana}{{}{6}{Personaggi}{section*.9}{}}
\newlabel{characterombra}{{}{6}{Personaggi}{section*.9}{}}
\newlabel{characterpeter}{{}{6}{Personaggi}{section*.9}{}}
\newlabel{characterpirdance}{{}{6}{Personaggi}{section*.9}{}}
\newlabel{characterpirchim}{{}{6}{Personaggi}{section*.9}{}}
\newlabel{characterpirfis}{{}{6}{Personaggi}{section*.9}{}}
\newlabel{characterpirinf}{{}{6}{Personaggi}{section*.9}{}}
\newlabel{characterpirharm}{{}{6}{Personaggi}{section*.9}{}}
\newlabel{characterspugna}{{}{6}{Personaggi}{section*.9}{}}
\newlabel{charactersirena}{{}{6}{Personaggi}{section*.9}{}}
\newlabel{charactertarski}{{}{6}{Personaggi}{section*.9}{}}
\newlabel{charactertrilli}{{}{6}{Personaggi}{section*.9}{}}
\newlabel{characterwendy}{{}{6}{Personaggi}{section*.9}{}}
\newlabel{characterspNatF}{{}{6}{Personaggi}{section*.9}{}}
\newlabel{characterspNatP}{{}{6}{Personaggi}{section*.9}{}}
\newlabel{characterspNatN}{{}{6}{Personaggi}{section*.9}{}}
\newlabel{characterpinocchio}{{}{6}{Personaggi}{section*.9}{}}
\newlabel{characterangolo}{{}{6}{Personaggi}{section*.9}{}}
\newlabel{charactercalcolo}{{}{6}{Personaggi}{section*.9}{}}
\newlabel{characterluppolo}{{}{6}{Personaggi}{section*.9}{}}
\newlabel{characterotto}{{}{6}{Personaggi}{section*.9}{}}
\pgfsyspdfmark {pgfid7}{4736286}{50644704}
\newlabel{characterpendolo}{{}{7}{Personaggi}{section*.9}{}}
\newlabel{characterregolo}{{}{7}{Personaggi}{section*.9}{}}
\newlabel{charactersimbolo}{{}{7}{Personaggi}{section*.9}{}}
\newlabel{characterspigolo}{{}{7}{Personaggi}{section*.9}{}}
\newlabel{characterpika}{{}{7}{Personaggi}{section*.9}{}}
\newlabel{charactercorg}{{}{7}{Personaggi}{section*.9}{}}
\newlabel{characterherm}{{}{7}{Personaggi}{section*.9}{}}
\newlabel{characterhaar}{{}{7}{Personaggi}{section*.9}{}}
\newlabel{characterhp}{{}{7}{Personaggi}{section*.9}{}}
\newlabel{charactergrafo}{{}{7}{Personaggi}{section*.9}{}}
\newlabel{characterlemma}{{}{7}{Personaggi}{section*.9}{}}
\newlabel{characterron}{{}{7}{Personaggi}{section*.9}{}}
\newlabel{charactergodel}{{}{7}{Personaggi}{section*.9}{}}
\newlabel{characterinnominabile}{{}{7}{Personaggi}{section*.9}{}}
\newlabel{characterquiddA}{{}{7}{Personaggi}{section*.9}{}}
\newlabel{characterquidd1}{{}{7}{Personaggi}{section*.9}{}}
\newlabel{characterquidd2}{{}{7}{Personaggi}{section*.9}{}}
\newlabel{characterquidd3}{{}{7}{Personaggi}{section*.9}{}}
\newlabel{characterquidd4}{{}{7}{Personaggi}{section*.9}{}}
\newlabel{characterproc1}{{}{7}{Personaggi}{section*.9}{}}
\newlabel{characterproc2}{{}{7}{Personaggi}{section*.9}{}}
\newlabel{characterproc3}{{}{7}{Personaggi}{section*.9}{}}
\newlabel{characterproc4}{{}{7}{Personaggi}{section*.9}{}}
\newlabel{characterzerm}{{}{7}{Personaggi}{section*.9}{}}
\newlabel{characterrodrigo}{{}{7}{Personaggi}{section*.9}{}}
\newlabel{characterdrago}{{}{7}{Personaggi}{section*.9}{}}
\newlabel{characterfatou}{{}{7}{Personaggi}{section*.9}{}}
\newlabel{charactergandalf}{{}{7}{Personaggi}{section*.9}{}}
\newlabel{charactergiull1}{{}{7}{Personaggi}{section*.9}{}}
\newlabel{charactergiull2}{{}{7}{Personaggi}{section*.9}{}}
\newlabel{charactergiull3}{{}{7}{Personaggi}{section*.9}{}}
\newlabel{characterlusina}{{}{7}{Personaggi}{section*.9}{}}
\newlabel{characterfusco}{{}{7}{Personaggi}{section*.9}{}}
\newlabel{characteroste}{{}{7}{Personaggi}{section*.9}{}}
\newlabel{charactervirgilio}{{}{7}{Personaggi}{section*.9}{}}
\newlabel{charactermedico}{{}{7}{Personaggi}{section*.9}{}}
\newlabel{characterst1}{{}{7}{Personaggi}{section*.9}{}}
\newlabel{characterst2}{{}{7}{Personaggi}{section*.9}{}}
\newlabel{charactergiraffa}{{}{7}{Personaggi}{section*.9}{}}
\newlabel{characterccap}{{}{7}{Personaggi}{section*.9}{}}
\newlabel{characterdef}{{}{7}{Personaggi}{section*.9}{}}
\newlabel{characterdem}{{}{7}{Personaggi}{section*.9}{}}
\newlabel{charactersoade1}{{}{7}{Personaggi}{section*.9}{}}
\pgfsyspdfmark {pgfid8}{4736286}{50644704}
\newlabel{characterpaolo}{{}{8}{Personaggi}{section*.9}{}}
\newlabel{characterfrancesca}{{}{8}{Personaggi}{section*.9}{}}
\newlabel{charactersir1}{{}{8}{Personaggi}{section*.9}{}}
\newlabel{charactersir2}{{}{8}{Personaggi}{section*.9}{}}
\newlabel{charactersir3}{{}{8}{Personaggi}{section*.9}{}}
\newlabel{characterburo}{{}{8}{Personaggi}{section*.9}{}}
\newlabel{charactersegrdid}{{}{8}{Personaggi}{section*.9}{}}
\newlabel{charactersegramm}{{}{8}{Personaggi}{section*.9}{}}
\pgfsyspdfmark {pgfid9}{4736286}{50644704}
\@writefile{toc}{\contentsline {section}{Oggetti di scena}{9}{section*.10}}
\newlabel{objectcuscino1}{{}{9}{Oggetti di scena}{section*.10}{}}
\newlabel{objectcuscino2}{{}{9}{Oggetti di scena}{section*.10}{}}
\newlabel{objectcoperta1}{{}{9}{Oggetti di scena}{section*.10}{}}
\newlabel{objectcoperta2}{{}{9}{Oggetti di scena}{section*.10}{}}
\newlabel{objectspada1}{{}{9}{Oggetti di scena}{section*.10}{}}
\newlabel{objectspada2}{{}{9}{Oggetti di scena}{section*.10}{}}
\newlabel{objectcamicia}{{}{9}{Oggetti di scena}{section*.10}{}}
\newlabel{objectuncino}{{}{9}{Oggetti di scena}{section*.10}{}}
\newlabel{objectscatolamolle}{{}{9}{Oggetti di scena}{section*.10}{}}
\newlabel{objecttictac}{{}{9}{Oggetti di scena}{section*.10}{}}
\newlabel{objectscacchiera}{{}{9}{Oggetti di scena}{section*.10}{}}
\newlabel{objectbomba}{{}{9}{Oggetti di scena}{section*.10}{}}
\newlabel{objectspade}{{}{9}{Oggetti di scena}{section*.10}{}}
\newlabel{objectsandali}{{}{9}{Oggetti di scena}{section*.10}{}}
\newlabel{objectcomputer}{{}{9}{Oggetti di scena}{section*.10}{}}
\newlabel{objecttessera}{{}{9}{Oggetti di scena}{section*.10}{}}
\newlabel{objectschroedinger}{{}{9}{Oggetti di scena}{section*.10}{}}
\newlabel{objectcaffe}{{}{9}{Oggetti di scena}{section*.10}{}}
\newlabel{objectfisarmonica}{{}{9}{Oggetti di scena}{section*.10}{}}
\newlabel{objectmollaarcobaleno}{{}{9}{Oggetti di scena}{section*.10}{}}
\newlabel{objectbiblio}{{}{9}{Oggetti di scena}{section*.10}{}}
\newlabel{objectmanetti}{{}{9}{Oggetti di scena}{section*.10}{}}
\newlabel{objectmanettibook}{{}{9}{Oggetti di scena}{section*.10}{}}
\newlabel{objectcartello1}{{}{9}{Oggetti di scena}{section*.10}{}}
\newlabel{objectcartello2}{{}{9}{Oggetti di scena}{section*.10}{}}
\newlabel{objectcartello3}{{}{9}{Oggetti di scena}{section*.10}{}}
\newlabel{objectbavaglio}{{}{9}{Oggetti di scena}{section*.10}{}}
\newlabel{objectrudin}{{}{9}{Oggetti di scena}{section*.10}{}}
\newlabel{objectspada}{{}{9}{Oggetti di scena}{section*.10}{}}
\newlabel{objectsediamov}{{}{9}{Oggetti di scena}{section*.10}{}}
\pgfsyspdfmark {pgfid10}{4736286}{50644704}
\@writefile{toc}{\contentsline {section}{Costumi}{10}{section*.11}}
\pgfsyspdfmark {pgfid11}{4736286}{50644704}
\@writefile{toc}{\contentsline {section}{Musica}{11}{section*.12}}
\@writefile{toc}{\contentsline {subsection}{Tracce musicali ed effetti sonori}{11}{subsection*.13}}
\newlabel{audiogattoevolpe}{{}{11}{Tracce musicali ed effetti sonori}{subsection*.13}{}}
\newlabel{audiolimite}{{}{11}{Tracce musicali ed effetti sonori}{subsection*.13}{}}
\newlabel{audiocapitanuncino}{{}{11}{Tracce musicali ed effetti sonori}{subsection*.13}{}}
\newlabel{audiotictac}{{}{11}{Tracce musicali ed effetti sonori}{subsection*.13}{}}
\newlabel{audiorelatore}{{}{11}{Tracce musicali ed effetti sonori}{subsection*.13}{}}
\newlabel{audiocauchyhadamard}{{}{11}{Tracce musicali ed effetti sonori}{subsection*.13}{}}
\newlabel{audiobanachtarski2}{{}{11}{Tracce musicali ed effetti sonori}{subsection*.13}{}}
\newlabel{audiolonglongman}{{}{11}{Tracce musicali ed effetti sonori}{subsection*.13}{}}
\newlabel{audiotuono}{{}{11}{Tracce musicali ed effetti sonori}{subsection*.13}{}}
\newlabel{audiowildpokemon}{{}{11}{Tracce musicali ed effetti sonori}{subsection*.13}{}}
\newlabel{audiobilliejean}{{}{11}{Tracce musicali ed effetti sonori}{subsection*.13}{}}
\newlabel{audiogiungla}{{}{11}{Tracce musicali ed effetti sonori}{subsection*.13}{}}
\newlabel{audiozanzanzan}{{}{11}{Tracce musicali ed effetti sonori}{subsection*.13}{}}
\newlabel{audiometal}{{}{11}{Tracce musicali ed effetti sonori}{subsection*.13}{}}
\newlabel{audioindiani}{{}{11}{Tracce musicali ed effetti sonori}{subsection*.13}{}}
\newlabel{audiogot}{{}{11}{Tracce musicali ed effetti sonori}{subsection*.13}{}}
\newlabel{audiointervallo}{{}{11}{Tracce musicali ed effetti sonori}{subsection*.13}{}}
\newlabel{audiovizietto}{{}{11}{Tracce musicali ed effetti sonori}{subsection*.13}{}}
\newlabel{audiospaziofrattale}{{}{11}{Tracce musicali ed effetti sonori}{subsection*.13}{}}
\newlabel{audiojinglebells}{{}{11}{Tracce musicali ed effetti sonori}{subsection*.13}{}}
\newlabel{audiodanubioblu}{{}{11}{Tracce musicali ed effetti sonori}{subsection*.13}{}}
\newlabel{audioe}{{}{11}{Tracce musicali ed effetti sonori}{subsection*.13}{}}
\newlabel{audiojumanji}{{}{11}{Tracce musicali ed effetti sonori}{subsection*.13}{}}
\newlabel{audiobarbiere}{{}{11}{Tracce musicali ed effetti sonori}{subsection*.13}{}}
\newlabel{audiotitanic}{{}{11}{Tracce musicali ed effetti sonori}{subsection*.13}{}}
\@writefile{toc}{\contentsline {subsection}{Testi delle canzoni}{11}{subsection*.14}}
\@writefile{toc}{\contentsline {subsubsection}{Il limite che non c'\IeC {\`e}}{11}{subsubsection*.15}}
\pgfsyspdfmark {pgfid12}{4736286}{50644704}
\@writefile{toc}{\contentsline {subsubsection}{E}{12}{subsubsection*.16}}
\pgfsyspdfmark {pgfid13}{4736286}{50644704}
\@writefile{toc}{\contentsline {subsubsection}{Toto - Algebra}{13}{subsubsection*.17}}
\@writefile{toc}{\contentsline {subsubsection}{Aria Eulero-Wendy, parte 1}{13}{subsubsection*.18}}
\pgfsyspdfmark {pgfid14}{4736286}{50644704}
\@writefile{toc}{\contentsline {subsubsection}{Rap parte 1}{14}{subsubsection*.19}}
\@writefile{toc}{\contentsline {subsubsection}{Aria Eulero-Wendy, parte 2}{14}{subsubsection*.20}}
\pgfsyspdfmark {pgfid15}{4736286}{50644704}
\@writefile{toc}{\contentsline {subsubsection}{Rap, parte 2}{15}{subsubsection*.21}}
\@writefile{toc}{\contentsline {subsubsection}{Barbiere}{15}{subsubsection*.22}}
\pgfsyspdfmark {pgfid16}{4736286}{50644704}
\@writefile{toc}{\contentsline {subsubsection}{Capitan Hooke}{16}{subsubsection*.23}}
\pgfsyspdfmark {pgfid17}{4736286}{50644704}
\@writefile{toc}{\contentsline {subsubsection}{Titanic}{17}{subsubsection*.24}}
\@writefile{toc}{\contentsline {subsubsection}{$6 \times 7 + 2$ gatti}{17}{subsubsection*.25}}
\pgfsyspdfmark {pgfid18}{4736286}{50644704}
\pgfsyspdfmark {pgfid19}{4736286}{50644704}
\@writefile{toc}{\contentsline {section}{Scene}{19}{section*.26}}
\@writefile{toc}{\contentsline {subsection}{I genitori di Vendy}{19}{subsection*.27}}
\pgfsyspdfmark {pgfid20}{4736286}{50644704}
\pgfsyspdfmark {pgfid21}{4736286}{50644704}
\pgfsyspdfmark {pgfid22}{4736286}{50644704}
\@writefile{toc}{\contentsline {subsection}{Vendy a casa}{22}{subsection*.28}}
\pgfsyspdfmark {pgfid23}{4736286}{50644704}
\pgfsyspdfmark {pgfid24}{4736286}{50644704}
\@writefile{toc}{\contentsline {subsection}{Uncino, pirati, spugna}{24}{subsection*.29}}
\pgfsyspdfmark {pgfid25}{4736286}{50644704}
\pgfsyspdfmark {pgfid26}{4736286}{50644704}
\@writefile{toc}{\contentsline {subsection}{Bimbi sperduti}{26}{subsection*.30}}
\pgfsyspdfmark {pgfid27}{4736286}{50644704}
\pgfsyspdfmark {pgfid28}{4736286}{50644704}
\pgfsyspdfmark {pgfid29}{4736286}{50644704}
\@writefile{toc}{\contentsline {subsection}{Giro dell'isola}{29}{subsection*.31}}
\@writefile{toc}{\contentsline {subsubsection}{PREMESSE}{29}{subsubsection*.32}}
\pgfsyspdfmark {pgfid30}{4736286}{50644704}
\@writefile{toc}{\contentsline {subsubsection}{6a1 - L'AULA III}{30}{subsubsection*.33}}
\newlabel{6a1}{{}{30}{6a1 - L'AULA III}{subsubsection*.33}{}}
\pgfsyspdfmark {pgfid31}{4736286}{50644704}
\@writefile{toc}{\contentsline {subsubsection}{6a2 - PINOCCHIO}{31}{subsubsection*.34}}
\newlabel{6a2}{{}{31}{6a2 - PINOCCHIO}{subsubsection*.34}{}}
\pgfsyspdfmark {pgfid32}{4736286}{50644704}
\pgfsyspdfmark {pgfid33}{4736286}{50644704}
\pgfsyspdfmark {pgfid34}{4736286}{50644704}
\@writefile{toc}{\contentsline {subsubsection}{6a3 - IL PASSATO}{34}{subsubsection*.35}}
\newlabel{6a3}{{}{34}{6a3 - IL PASSATO}{subsubsection*.35}{}}
\pgfsyspdfmark {pgfid35}{4736286}{50644704}
\pgfsyspdfmark {pgfid36}{4736286}{50644704}
\@writefile{toc}{\contentsline {subsubsection}{6b1 - ORDA 1}{36}{subsubsection*.36}}
\newlabel{6b1}{{}{36}{6b1 - ORDA 1}{subsubsection*.36}{}}
\pgfsyspdfmark {pgfid37}{4736286}{50644704}
\newlabel{6b2}{{}{37}{6b1 - ORDA 1}{subsubsection*.36}{}}
\pgfsyspdfmark {pgfid38}{4736286}{50644704}
\@writefile{toc}{\contentsline {subsubsection}{6b3 - X FACTORIALE}{38}{subsubsection*.37}}
\newlabel{6b3}{{}{38}{6b3 - X FACTORIALE}{subsubsection*.37}{}}
\pgfsyspdfmark {pgfid39}{4736286}{50644704}
\@writefile{toc}{\contentsline {subsubsection}{6b4 - LA BUROCRAZIA}{39}{subsubsection*.38}}
\newlabel{6b4}{{}{39}{6b4 - LA BUROCRAZIA}{subsubsection*.38}{}}
\pgfsyspdfmark {pgfid40}{4736286}{50644704}
\@writefile{toc}{\contentsline {subsubsection}{6c1 - IL PRESENTE}{40}{subsubsection*.39}}
\newlabel{6c1}{{}{40}{6c1 - IL PRESENTE}{subsubsection*.39}{}}
\pgfsyspdfmark {pgfid41}{4736286}{50644704}
\pgfsyspdfmark {pgfid42}{4736286}{50644704}
\@writefile{toc}{\contentsline {subsection}{Giglio Fibrato}{42}{subsection*.40}}
\pgfsyspdfmark {pgfid43}{4736286}{50644704}
\pgfsyspdfmark {pgfid44}{4736286}{50644704}
\pgfsyspdfmark {pgfid45}{4736286}{50644704}
\@writefile{toc}{\contentsline {subsection}{Gli indiani}{45}{subsection*.41}}
\pgfsyspdfmark {pgfid46}{4736286}{50644704}
\pgfsyspdfmark {pgfid47}{4736286}{50644704}
\pgfsyspdfmark {pgfid48}{4736286}{50644704}
\@writefile{toc}{\contentsline {subsection}{Trilli da Uncino}{48}{subsection*.42}}
\pgfsyspdfmark {pgfid49}{4736286}{50644704}
\pgfsyspdfmark {pgfid50}{4736286}{50644704}
\@writefile{toc}{\contentsline {subsection}{Rapimento bimbi}{50}{subsection*.43}}
\pgfsyspdfmark {pgfid51}{4736286}{50644704}
\pgfsyspdfmark {pgfid52}{4736286}{50644704}
\@writefile{toc}{\contentsline {subsection}{Morte di Trilli}{52}{subsection*.44}}
\pgfsyspdfmark {pgfid53}{4736286}{50644704}
\@writefile{toc}{\contentsline {subsection}{Scontro finale}{53}{subsection*.45}}
\pgfsyspdfmark {pgfid54}{4736286}{50644704}
\pgfsyspdfmark {pgfid55}{4736286}{50644704}
\@writefile{toc}{\contentsline {subsection}{Ritorno a casa}{55}{subsection*.46}}
